// Jest Snapshot v1, https://goo.gl/fbAQLP

exports[`CallCard #render call card with name and status renders correctly 1`] = `
<div
  className="container"
>
  <div
    className="overlay"
  >
    <Paper
      circle={false}
      rounded={true}
      style={
        Object {
          "background": "none",
          "borderRadius": 5,
          "color": "rgba(255, 255, 255, 1)",
          "height": 372,
          "padding": 10,
          "position": "relative",
        }
      }
      transitionEnabled={true}
      zDepth={1}
    >
      <div
        className="details"
      >
        <div
          className="status"
        >
          Incoming Call
        </div>
        <div
          className="contact"
        >
          <div
            className="name"
          >
            Tony Stark
          </div>
        </div>
      </div>
    </Paper>
  </div>
</div>
`;

exports[`CallCard #render call card with name, phone number and status renders correctly 1`] = `
<div
  className="container"
>
  <div
    className="overlay"
  >
    <Paper
      circle={false}
      rounded={true}
      style={
        Object {
          "background": "none",
          "borderRadius": 5,
          "color": "rgba(255, 255, 255, 1)",
          "height": 372,
          "padding": 10,
          "position": "relative",
        }
      }
      transitionEnabled={true}
      zDepth={1}
    >
      <div
        className="details"
      >
        <div
          className="status"
        >
          Calling
        </div>
        <div
          className="contact"
        >
          <div
            className="name"
          >
            Groot
          </div>
          <div
            className="phone-number"
          >
            (866) 740-4531
          </div>
        </div>
      </div>
    </Paper>
  </div>
</div>
`;

exports[`CallCard #render call card with name, phone number, status and timer renders correctly 1`] = `
<div
  className="container"
>
  <div
    className="overlay"
  >
    <Paper
      circle={false}
      rounded={true}
      style={
        Object {
          "background": "none",
          "borderRadius": 5,
          "color": "rgba(255, 255, 255, 1)",
          "height": 372,
          "padding": 10,
          "position": "relative",
        }
      }
      transitionEnabled={true}
      zDepth={1}
    >
      <div
        className="details"
      >
        <div
          className="status"
        >
          Active
        </div>
        <div
          className="timer"
        >
          05:45
        </div>
        <div
          className="contact"
        >
          <div
            className="name"
          >
            Groot
          </div>
          <div
            className="phone-number"
          >
            (866) 740-4531
          </div>
        </div>
      </div>
    </Paper>
  </div>
</div>
`;

exports[`CallCard #render call card with status renders correctly 1`] = `
<div
  className="container"
>
  <div
    className="overlay"
  >
    <Paper
      circle={false}
      rounded={true}
      style={
        Object {
          "background": "none",
          "borderRadius": 5,
          "color": "rgba(255, 255, 255, 1)",
          "height": 372,
          "padding": 10,
          "position": "relative",
        }
      }
      transitionEnabled={true}
      zDepth={1}
    >
      <div
        className="details"
      >
        <div
          className="status"
        >
          Incoming Call
        </div>
        <div
          className="contact"
        >
          <div
            className="name"
          >
            Unknown Caller
          </div>
        </div>
      </div>
    </Paper>
  </div>
</div>
`;
