{
    "extends": [
        "tslint:latest",
        "tslint-react"
    ],
    "rules": {
        "jsx-alignment": false,
        "newline-before-return": true,
        "no-duplicate-super": true,
        "trailing-comma": false,
        "typedef": [
            true,
            "call-signature",
            "member-variable-declaration",
            "parameter",
            "property-declaration"
        ],
        "variable-name": [
            true,
            "check-format",
            "ban-keywords"
        ]
    }
}
