// Jest Snapshot v1, https://goo.gl/fbAQLP

exports[`Dialer #render dialer in 'active' mode renders correctly 1`] = `
<Paper
  circle={false}
  rounded={true}
  style={
    Object {
      "padding": 10,
    }
  }
  transitionEnabled={true}
  zDepth={1}
>
  <EventListener
    onKeyDown={[Function]}
    target="document"
  />
  <CallCard
    name="unknown caller"
    status="active"
  />
  <div
    className="dial-buttons"
  >
    <CallButton
      onClick={[Function]}
      type="end-call"
    />
  </div>
</Paper>
`;

exports[`Dialer #render dialer in 'active' mode with card name and phone number renders correctly 1`] = `
<Paper
  circle={false}
  rounded={true}
  style={
    Object {
      "padding": 10,
    }
  }
  transitionEnabled={true}
  zDepth={1}
>
  <EventListener
    onKeyDown={[Function]}
    target="document"
  />
  <CallCard
    name="Groot"
    phoneNumber="(866) 740-4531"
    status="active"
  />
  <div
    className="dial-buttons"
  >
    <CallButton
      onClick={[Function]}
      type="end-call"
    />
  </div>
</Paper>
`;

exports[`Dialer #render dialer in 'calling' mode renders correctly 1`] = `
<Paper
  circle={false}
  rounded={true}
  style={
    Object {
      "padding": 10,
    }
  }
  transitionEnabled={true}
  zDepth={1}
>
  <EventListener
    onKeyDown={[Function]}
    target="document"
  />
  <CallCard
    name="unknown caller"
    status="calling"
  />
  <div
    className="dial-buttons"
  >
    <CallButton
      onClick={[Function]}
      type="end-call"
    />
  </div>
</Paper>
`;

exports[`Dialer #render dialer in 'idle' mode renders correctly 1`] = `
<Paper
  circle={false}
  rounded={true}
  style={
    Object {
      "padding": 10,
    }
  }
  transitionEnabled={true}
  zDepth={1}
>
  <EventListener
    onKeyDown={[Function]}
    target="document"
  />
  <div>
    <PhoneNumber
      onDeleteClick={[Function]}
    />
    <Dialpad
      onDial={[Function]}
    />
  </div>
  <div
    className="dial-buttons"
  >
    <CallButton
      onClick={[Function]}
      type="call"
    />
  </div>
</Paper>
`;

exports[`Dialer #render dialer in 'idle' mode with input phone number renders correctly 1`] = `
<Paper
  circle={false}
  rounded={true}
  style={
    Object {
      "padding": 10,
    }
  }
  transitionEnabled={true}
  zDepth={1}
>
  <EventListener
    onKeyDown={[Function]}
    target="document"
  />
  <div>
    <PhoneNumber
      onDeleteClick={[Function]}
    >
      (866) 740-4531
    </PhoneNumber>
    <Dialpad
      onDial={[Function]}
    />
  </div>
  <div
    className="dial-buttons"
  >
    <CallButton
      onClick={[Function]}
      type="call"
    />
  </div>
</Paper>
`;

exports[`Dialer #render dialer in 'incoming call' mode renders correctly 1`] = `
<Paper
  circle={false}
  rounded={true}
  style={
    Object {
      "padding": 10,
    }
  }
  transitionEnabled={true}
  zDepth={1}
>
  <EventListener
    onKeyDown={[Function]}
    target="document"
  />
  <CallCard
    name="unknown caller"
    status="incoming-call"
  />
  <div
    className="dial-buttons"
  >
    <div
      className="incoming-call"
    >
      <CallButton
        onClick={[Function]}
        type="answer"
      />
      <CallButton
        onClick={[Function]}
        type="decline"
      />
    </div>
  </div>
</Paper>
`;
